Hydrolytic Extracellular Enzyme Pre-test Calculations
…
Now you are ready to read in your files. If you get an error, check whether you have any extra CSV files in the designated folder.

Read in plate templates & metadata

file.names <- dir(glue("./data/temp/plater-templates-round{params$round}/"))
file.paths <- paste0(glue("./data/temp/plater-templates-round{params$round}/"), 
    file.names)
plates <- read_plates(file.paths)
colnames(plates) <- c("plate", "wells", "id", "bad_wells", 
    "conc_uM", "fluor")

plates

## # A tibble: 768 x 6
##    plate        wells id          bad_wells conc_uM fluor
##    <chr>        <chr> <chr>       <chr>     <chr>   <int>
##  1 1-rr120-8-bc A01   B-sub-blank <NA>      sub_300   998
##  2 1-rr120-8-bc A02   B-sub-blank <NA>      sub_300  1054
##  3 1-rr120-8-bc A03   C-sub-blank <NA>      sub_300   534
##  4 1-rr120-8-bc A04   C-sub-blank <NA>      sub_300   534
##  5 1-rr120-8-bc A05   B-Assay     <NA>      sub_300 11154
##  6 1-rr120-8-bc A06   B-Assay     <NA>      sub_300 10490
##  7 1-rr120-8-bc A07   C-Assay     <NA>      sub_300  1757
##  8 1-rr120-8-bc A08   C-Assay     <NA>      sub_300  1407
##  9 1-rr120-8-bc A09   MUB2.5+S    <NA>      mub_2.5 22088
## 10 1-rr120-8-bc A10   MUB2.5      <NA>      mub_2.5 27782
## # ... with 758 more rows
…
# function to calculate homogenate blank (Buf +s) mean
# fluor
get_hombl <- function(data) {
    buf_soil <- data %>% filter(id == "Buf+s")
    mean(buf_soil$fluor)
}

# apply function to nested dataframe
hombl_calcs <- plate_blanks %>% mutate(hombl = map_dbl(data, 
    get_hombl))

hombl_calcs$data

## [[1]]
## # A tibble: 91 x 5
##    wells id          bad_wells conc_uM fluor
##    <chr> <chr>       <chr>     <chr>   <int>
##  1 A01   B-sub-blank <NA>      sub_300   998
##  2 A02   B-sub-blank <NA>      sub_300  1054
##  3 A03   C-sub-blank <NA>      sub_300   534
##  4 A04   C-sub-blank <NA>      sub_300   534
##  5 A05   B-Assay     <NA>      sub_300 11154
##  6 A06   B-Assay     <NA>      sub_300 10490
##  7 A07   C-Assay     <NA>      sub_300  1757
##  8 A08   C-Assay     <NA>      sub_300  1407
##  9 A09   MUB2.5+S    <NA>      mub_2.5 22088
## 10 A10   MUB2.5      <NA>      mub_2.5 27782
## # ... with 81 more rows
## 
## [[2]]
## # A tibble: 92 x 5
##    wells id          bad_wells conc_uM fluor
##    <chr> <chr>       <chr>     <chr>   <int>
##  1 A01   N-sub-blank <NA>      sub_300   649
##  2 A02   N-sub-blank <NA>      sub_300   671
##  3 A03   P-sub-blank <NA>      sub_300  7404
##  4 A04   P-sub-blank <NA>      sub_300  7500
##  5 A05   N-Assay     <NA>      sub_300  1181
##  6 A06   N-Assay     <NA>      sub_300  1134
##  7 A07   P-Assay     <NA>      sub_300 23786
##  8 A08   P-Assay     <NA>      sub_300 22466
##  9 A09   MUB2.5+S    <NA>      mub_2.5 22967
## 10 A10   MUB2.5      <NA>      mub_2.5 27184
## # ... with 82 more rows
## 
## [[3]]
## # A tibble: 93 x 5
##    wells id          bad_wells conc_uM fluor
##    <chr> <chr>       <chr>     <chr>   <int>
##  1 A01   B-sub-blank <NA>      sub_300   869
##  2 A02   B-sub-blank <NA>      sub_300   817
##  3 A03   C-sub-blank <NA>      sub_300   521
##  4 A04   C-sub-blank <NA>      sub_300   509
##  5 A05   B-Assay     <NA>      sub_300  9020
##  6 A06   B-Assay     <NA>      sub_300 11899
##  7 A07   C-Assay     <NA>      sub_300  1513
##  8 A08   C-Assay     <NA>      sub_300  1275
##  9 A09   MUB2.5+S    <NA>      mub_2.5 14480
## 10 A10   MUB2.5      <NA>      mub_2.5 13438
## # ... with 83 more rows
## 
## [[4]]
## # A tibble: 95 x 5
##    wells id          bad_wells conc_uM fluor
##    <chr> <chr>       <chr>     <chr>   <int>
##  1 A01   N-sub-blank <NA>      sub_300   559
##  2 A02   N-sub-blank <NA>      sub_300   551
##  3 A03   P-sub-blank <NA>      sub_300  5644
##  4 A04   P-sub-blank <NA>      sub_300  5750
##  5 A05   N-Assay     <NA>      sub_300   998
##  6 A06   N-Assay     <NA>      sub_300   965
##  7 A07   P-Assay     <NA>      sub_300  9161
##  8 A08   P-Assay     <NA>      sub_300 10951
##  9 A09   MUB2.5+S    <NA>      mub_2.5 11528
## 10 A10   MUB2.5      <NA>      mub_2.5 10279
## # ... with 85 more rows
## 
## [[5]]
## # A tibble: 93 x 5
##    wells id          bad_wells conc_uM fluor
##    <chr> <chr>       <chr>     <chr>   <int>
##  1 A01   B-sub-blank <NA>      sub_300   720
##  2 A02   B-sub-blank <NA>      sub_300   786
##  3 A03   C-sub-blank <NA>      sub_300   442
##  4 A04   C-sub-blank <NA>      sub_300   458
##  5 A05   B-Assay     <NA>      sub_300  1970
##  6 A06   B-Assay     <NA>      sub_300  2525
##  7 A07   C-Assay     <NA>      sub_300   457
##  8 A08   C-Assay     <NA>      sub_300   562
##  9 A09   MUB2.5+S    <NA>      mub_2.5  2892
## 10 A10   MUB2.5      <NA>      mub_2.5 15462
## # ... with 83 more rows
## 
## [[6]]
## # A tibble: 96 x 5
##    wells id          bad_wells conc_uM fluor
##    <chr> <chr>       <chr>     <chr>   <int>
##  1 A01   N-sub-blank <NA>      sub_300   483
##  2 A02   N-sub-blank <NA>      sub_300   483
##  3 A03   P-sub-blank <NA>      sub_300  5418
##  4 A04   P-sub-blank <NA>      sub_300  5667
##  5 A05   N-Assay     <NA>      sub_300   824
##  6 A06   N-Assay     <NA>      sub_300   815
##  7 A07   P-Assay     <NA>      sub_300  7921
##  8 A08   P-Assay     <NA>      sub_300 11390
##  9 A09   MUB2.5+S    <NA>      mub_2.5  2089
## 10 A10   MUB2.5      <NA>      mub_2.5 10794
## # ... with 86 more rows
## 
## [[7]]
## # A tibble: 94 x 5
##    wells id          bad_wells conc_uM fluor
##    <chr> <chr>       <chr>     <chr>   <int>
##  1 A01   B-sub-blank <NA>      sub_300   738
##  2 A02   B-sub-blank <NA>      sub_300   760
##  3 A03   C-sub-blank <NA>      sub_300   466
##  4 A04   C-sub-blank <NA>      sub_300   515
##  5 A05   B-Assay     <NA>      sub_300  1638
##  6 A06   B-Assay     <NA>      sub_300  2005
##  7 A07   C-Assay     <NA>      sub_300   480
##  8 A08   C-Assay     <NA>      sub_300   455
##  9 A09   MUB2.5+S    <NA>      mub_2.5  4190
## 10 A10   MUB2.5      <NA>      mub_2.5 14084
## # ... with 84 more rows
## 
## [[8]]
## # A tibble: 96 x 5
##    wells id          bad_wells conc_uM fluor
##    <chr> <chr>       <chr>     <chr>   <int>
##  1 A01   N-sub-blank <NA>      sub_300   531
##  2 A02   N-sub-blank <NA>      sub_300   565
##  3 A03   P-sub-blank <NA>      sub_300  6225
##  4 A04   P-sub-blank <NA>      sub_300  6412
##  5 A05   N-Assay     <NA>      sub_300  1228
##  6 A06   N-Assay     <NA>      sub_300  1210
##  7 A07   P-Assay     <NA>      sub_300 10902
##  8 A08   P-Assay     <NA>      sub_300 18158
##  9 A09   MUB2.5+S    <NA>      mub_2.5  3543
## 10 A10   MUB2.5      <NA>      mub_2.5 14558
## # ... with 86 more rows
…
