Hydrolytic Extracellular Enzyme Pre-test Calculations
…
Now you are ready to read in your files. If you get an error, check whether you have any extra CSV files in the designated folder.

Read in plate templates & metadata

file.names <- dir(glue("./data/temp/plater-templates-round{params$round}/"))
file.paths <- paste0(glue("./data/temp/plater-templates-round{params$round}/"), 
    file.names)
plates <- read_plates(file.paths)
colnames(plates) <- c("plate", "wells", "id", "bad_wells", 
    "conc_uM", "fluor")

plates

## # A tibble: 768 x 6
##    plate      wells id          bad_wells conc_uM fluor
##    <chr>      <chr> <chr>       <chr>     <chr>   <int>
##  1 1_CB_ST2_7 A01   C-sub-blank <NA>      sub_300   469
##  2 1_CB_ST2_7 A02   C-sub-blank <NA>      sub_300   513
##  3 1_CB_ST2_7 A03   B-sub-blank <NA>      sub_300   346
##  4 1_CB_ST2_7 A04   B-sub-blank <NA>      sub_300   357
##  5 1_CB_ST2_7 A05   C-Assay     <NA>      sub_300   372
##  6 1_CB_ST2_7 A06   C-Assay     <NA>      sub_300   342
##  7 1_CB_ST2_7 A07   B-Assay     <NA>      sub_300  1203
##  8 1_CB_ST2_7 A08   B-Assay     <NA>      sub_300  1523
##  9 1_CB_ST2_7 A09   MUB2.5+S    <NA>      mub_2.5  2437
## 10 1_CB_ST2_7 A10   MUB2.5      <NA>      mub_2.5  9854
## # ... with 758 more rows
…
# function to calculate homogenate blank (Buf +s) mean
# fluor
get_hombl <- function(data) {
    buf_soil <- data %>% filter(id == "Buf+s")
    mean(buf_soil$fluor)
}

# apply function to nested dataframe
hombl_calcs <- plate_blanks %>% mutate(hombl = map_dbl(data, 
    get_hombl))

hombl_calcs$data

## [[1]]
## # A tibble: 95 x 5
##    wells id          bad_wells conc_uM fluor
##    <chr> <chr>       <chr>     <chr>   <int>
##  1 A01   C-sub-blank <NA>      sub_300   469
##  2 A02   C-sub-blank <NA>      sub_300   513
##  3 A03   B-sub-blank <NA>      sub_300   346
##  4 A04   B-sub-blank <NA>      sub_300   357
##  5 A05   C-Assay     <NA>      sub_300   372
##  6 A06   C-Assay     <NA>      sub_300   342
##  7 A07   B-Assay     <NA>      sub_300  1203
##  8 A08   B-Assay     <NA>      sub_300  1523
##  9 A09   MUB2.5+S    <NA>      mub_2.5  2437
## 10 A10   MUB2.5      <NA>      mub_2.5  9854
## # ... with 85 more rows
## 
## [[2]]
## # A tibble: 95 x 5
##    wells id          bad_wells conc_uM fluor
##    <chr> <chr>       <chr>     <chr>   <int>
##  1 A01   C-sub-blank <NA>      sub_300   493
##  2 A02   C-sub-blank <NA>      sub_300   523
##  3 A03   B-sub-blank <NA>      sub_300   372
##  4 A04   B-sub-blank <NA>      sub_300   399
##  5 A05   C-Assay     <NA>      sub_300   786
##  6 A06   C-Assay     <NA>      sub_300   995
##  7 A07   B-Assay     <NA>      sub_300  3131
##  8 A08   B-Assay     <NA>      sub_300  3328
##  9 A09   MUB2.5+S    <NA>      mub_2.5  1717
## 10 A10   MUB2.5      <NA>      mub_2.5 10075
## # ... with 85 more rows
## 
## [[3]]
## # A tibble: 96 x 5
##    wells id          bad_wells conc_uM fluor
##    <chr> <chr>       <chr>     <chr>   <int>
##  1 A01   N-sub-blank <NA>      sub_300   401
##  2 A02   N-sub-blank <NA>      sub_300   413
##  3 A03   P-sub-blank <NA>      sub_300  6123
##  4 A04   P-sub-blank <NA>      sub_300  5526
##  5 A05   N-Assay     <NA>      sub_300   827
##  6 A06   N-Assay     <NA>      sub_300   767
##  7 A07   P-Assay     <NA>      sub_300 16395
##  8 A08   P-Assay     <NA>      sub_300 14679
##  9 A09   MUB2.5+S    <NA>      mub_2.5  3872
## 10 A10   MUB2.5      <NA>      mub_2.5 11503
## # ... with 86 more rows
## 
## [[4]]
## # A tibble: 91 x 5
##    wells id          bad_wells conc_uM fluor
##    <chr> <chr>       <chr>     <chr>   <int>
##  1 A01   N-sub-blank <NA>      sub_300   412
##  2 A02   N-sub-blank <NA>      sub_300   426
##  3 A03   P-sub-blank <NA>      sub_300  4393
##  4 A04   P-sub-blank <NA>      sub_300  4635
##  5 A05   N-Assay     <NA>      sub_300   540
##  6 A06   N-Assay     <NA>      sub_300   523
##  7 A07   P-Assay     <NA>      sub_300  4431
##  8 A08   P-Assay     <NA>      sub_300  4560
##  9 A09   MUB2.5+S    <NA>      mub_2.5  1147
## 10 A10   MUB2.5      <NA>      mub_2.5  8309
## # ... with 81 more rows
## 
## [[5]]
## # A tibble: 96 x 5
##    wells id          bad_wells conc_uM fluor
##    <chr> <chr>       <chr>     <chr>   <int>
##  1 A01   C-sub-blank <NA>      sub_300   501
##  2 A02   C-sub-blank <NA>      sub_300   553
##  3 A03   B-sub-blank <NA>      sub_300   371
##  4 A04   B-sub-blank <NA>      sub_300   384
##  5 A05   C-Assay     <NA>      sub_300  1674
##  6 A06   C-Assay     <NA>      sub_300  2067
##  7 A07   B-Assay     <NA>      sub_300 13327
##  8 A08   B-Assay     <NA>      sub_300 12523
##  9 A09   MUB2.5+S    <NA>      mub_2.5 14490
## 10 A10   MUB2.5      <NA>      mub_2.5 12306
## # ... with 86 more rows
## 
## [[6]]
## # A tibble: 94 x 5
##    wells id          bad_wells conc_uM fluor
##    <chr> <chr>       <chr>     <chr>   <int>
##  1 A01   N-sub-blank <NA>      sub_300   530
##  2 A02   N-sub-blank <NA>      sub_300   541
##  3 A03   P-sub-blank <NA>      sub_300   380
##  4 A04   P-sub-blank <NA>      sub_300   393
##  5 A05   N-Assay     <NA>      sub_300  1782
##  6 A06   N-Assay     <NA>      sub_300  1529
##  7 A07   P-Assay     <NA>      sub_300 10300
##  8 A08   P-Assay     <NA>      sub_300  9410
##  9 A09   MUB2.5+S    <NA>      mub_2.5 12322
## 10 A10   MUB2.5      <NA>      mub_2.5 14063
## # ... with 84 more rows
## 
## [[7]]
## # A tibble: 94 x 5
##    wells id          bad_wells conc_uM fluor
##    <chr> <chr>       <chr>     <chr>   <int>
##  1 A01   C-sub-blank <NA>      sub_300   512
##  2 A02   C-sub-blank <NA>      sub_300   520
##  3 A03   B-sub-blank <NA>      sub_300   389
##  4 A04   B-sub-blank <NA>      sub_300   399
##  5 A05   C-Assay     <NA>      sub_300  1767
##  6 A06   C-Assay     <NA>      sub_300  1990
##  7 A07   B-Assay     <NA>      sub_300  9069
##  8 A08   B-Assay     <NA>      sub_300  9684
##  9 A09   MUB2.5+S    <NA>      mub_2.5 13296
## 10 A10   MUB2.5      <NA>      mub_2.5 13902
## # ... with 84 more rows
## 
## [[8]]
## # A tibble: 85 x 5
##    wells id          bad_wells conc_uM fluor
##    <chr> <chr>       <chr>     <chr>   <int>
##  1 A01   N-sub-blank <NA>      sub_300   489
##  2 A02   N-sub-blank <NA>      sub_300   497
##  3 A03   P-sub-blank <NA>      sub_300  6323
##  4 A04   P-sub-blank <NA>      sub_300  6203
##  5 A05   N-Assay     <NA>      sub_300   985
##  6 A06   N-Assay     <NA>      sub_300  1112
##  7 A07   P-Assay     <NA>      sub_300 16788
##  8 A08   P-Assay     <NA>      sub_300 16595
##  9 A09   MUB2.5+S    <NA>      mub_2.5 15210
## 10 A11   Buf+s       <NA>      0         179
## # ... with 75 more rows
…
